{
    "photos": {
        "page": 2,
        "pages": 2,
        "perpage": 25,
        "total": 50,
        "photo": [{
            "id": "49425845093",
            "owner": "56992582@N00",
            "secret": "cd35ce4861",
            "server": "65535",
            "farm": 66,
            "title": "Lunchtime Light Show",
            "ispublic": 1,
            "isfriend": 0,
            "isfamily": 0
        }, {
            "id": "49425845573",
            "owner": "159313150@N02",
            "secret": "992da885f3",
            "server": "65535",
            "farm": 66,
            "title": "Extra credit",
            "ispublic": 1,
            "isfriend": 0,
            "isfamily": 0
        }, {
            "id": "49425845773",
            "owner": "62329522@N03",
            "secret": "04b3a3debf",
            "server": "65535",
            "farm": 66,
            "title": "Cromer Fisher Fleet",
            "ispublic": 1,
            "isfriend": 0,
            "isfamily": 0
        }, {
            "id": "49425847418",
            "owner": "144546839@N06",
            "secret": "892afe10da",
            "server": "65535",
            "farm": 66,
            "title": "Golden dart frogs",
            "ispublic": 1,
            "isfriend": 0,
            "isfamily": 0
        }, {
            "id": "49425847703",
            "owner": "186324916@N04",
            "secret": "d5084ce125",
            "server": "65535",
            "farm": 66,
            "title": "ATC Sprocket",
            "ispublic": 1,
            "isfriend": 0,
            "isfamily": 0
        }, {
            "id": "49425848053",
            "owner": "44124466908@N01",
            "secret": "fb5aa8f2e1",
            "server": "65535",
            "farm": 66,
            "title": "JR The Chronicles of San Francisco at #SFMOMA",
            "ispublic": 1,
            "isfriend": 0,
            "isfamily": 0
        }, {
            "id": "49425848098",
            "owner": "161055113@N02",
            "secret": "86d0305cc4",
            "server": "65535",
            "farm": 66,
            "title": "IMG_20200120_150047__01__01",
            "ispublic": 1,
            "isfriend": 0,
            "isfamily": 0
        }, {
            "id": "49425848348",
            "owner": "154328131@N02",
            "secret": "e60354c30f",
            "server": "65535",
            "farm": 66,
            "title": "Youngjin & John Beach Wedding 27th December 2019 at Thavorn Beach Village Resort (234).jpg",
            "ispublic": 1,
            "isfriend": 0,
            "isfamily": 0
        }, {
            "id": "49426318276",
            "owner": "160498236@N03",
            "secret": "5b9b947384",
            "server": "65535",
            "farm": 66,
            "title": "_1220747.jpg",
            "ispublic": 1,
            "isfriend": 0,
            "isfamily": 0
        }, {
            "id": "49426318296",
            "owner": "30272096@N08",
            "secret": "024ced988b",
            "server": "65535",
            "farm": 66,
            "title": "",
            "ispublic": 1,
            "isfriend": 0,
            "isfamily": 0
        }, {
            "id": "49426319741",
            "owner": "83683119@N08",
            "secret": "1a6e45dfd8",
            "server": "65535",
            "farm": 66,
            "title": "Look Inside",
            "ispublic": 1,
            "isfriend": 0,
            "isfamily": 0
        }, {
            "id": "49426320581",
            "owner": "44404830@N05",
            "secret": "6cc6525e8f",
            "server": "65535",
            "farm": 66,
            "title": "20200122_125354",
            "ispublic": 1,
            "isfriend": 0,
            "isfamily": 0
        }, {
            "id": "49426321056",
            "owner": "23688043@N02",
            "secret": "86d033be91",
            "server": "65535",
            "farm": 66,
            "title": "DSCF1151161219",
            "ispublic": 1,
            "isfriend": 0,
            "isfamily": 0
        }, {
            "id": "49426541492",
            "owner": "76069178@N08",
            "secret": "52d6e9885f",
            "server": "65535",
            "farm": 66,
            "title": "IMGP9227-2\uff0f100.jpg",
            "ispublic": 1,
            "isfriend": 0,
            "isfamily": 0
        }, {
            "id": "49426541737",
            "owner": "57659712@N02",
            "secret": "645fbbca59",
            "server": "65535",
            "farm": 66,
            "title": "Noche en Cazorla",
            "ispublic": 1,
            "isfriend": 0,
            "isfamily": 0
        }, {
            "id": "49426544547",
            "owner": "17017714@N04",
            "secret": "41a2032645",
            "server": "65535",
            "farm": 66,
            "title": "iPhone-20170629-6637",
            "ispublic": 1,
            "isfriend": 0,
            "isfamily": 0
        }, {
            "id": "49426544602",
            "owner": "92301195@N00",
            "secret": "dd19fa5bc5",
            "server": "65535",
            "farm": 66,
            "title": "2020-01-22_02-09-02",
            "ispublic": 1,
            "isfriend": 0,
            "isfamily": 0
        }, {
            "id": "49426544622",
            "owner": "186594000@N04",
            "secret": "f07b50a860",
            "server": "65535",
            "farm": 66,
            "title": "IMG_20191126_173703~2",
            "ispublic": 1,
            "isfriend": 0,
            "isfamily": 0
        }, {
            "id": "49426544737",
            "owner": "185916517@N05",
            "secret": "3b603f1dd8",
            "server": "65535",
            "farm": 66,
            "title": "P",
            "ispublic": 1,
            "isfriend": 0,
            "isfamily": 0
        }, {
            "id": "49425842798",
            "owner": "186432492@N07",
            "secret": "02132333ae",
            "server": "65535",
            "farm": 66,
            "title": "\u0641\u064a\u0644\u0645 \u0627\u0644\u0645\u063a\u0627\u0645\u0631\u0627\u062a The Hobbit: An Unexpected Journey 2012 \u0645\u062a\u0631\u062c\u0645 \u0627\u0648\u0646\u0644\u0627\u064a\u0646",
            "ispublic": 1,
            "isfriend": 0,
            "isfamily": 0
        }, {
            "id": "49425843553",
            "owner": "146295081@N04",
            "secret": "19e4e71f03",
            "server": "65535",
            "farm": 66,
            "title": "Ship Channel Bridge - Corpus Christi, Texas",
            "ispublic": 1,
            "isfriend": 0,
            "isfamily": 0
        }, {
            "id": "49425843618",
            "owner": "186563025@N04",
            "secret": "4d56bc5059",
            "server": "65535",
            "farm": 66,
            "title": "IMG_0089",
            "ispublic": 1,
            "isfriend": 0,
            "isfamily": 0
        }, {
            "id": "49425876213",
            "owner": "36465337@N03",
            "secret": "0492f4c3d9",
            "server": "65535",
            "farm": 66,
            "title": "Czech Air Force, A319, 2801, TLV",
            "ispublic": 1,
            "isfriend": 0,
            "isfamily": 0
        }, {
            "id": "49425876413",
            "owner": "149567335@N07",
            "secret": "20a75b785d",
            "server": "65535",
            "farm": 66,
            "title": "N-2020-01-23-0615_f",
            "ispublic": 1,
            "isfriend": 0,
            "isfamily": 0
        }, {
            "id": "49425876983",
            "owner": "161474484@N06",
            "secret": "5f90b39d40",
            "server": "65535",
            "farm": 66,
            "title": "2020-01-22_09-16-10",
            "ispublic": 1,
            "isfriend": 0,
            "isfamily": 0
        }]
    },
    "stat": "ok"
}
