{
    "photos": {
        "page": 1,
        "pages": 2,
        "perpage": 25,
        "total": 1000,
        "photo": [{
            "id": "49411394228",
            "owner": "59270427@N02",
            "secret": "7433a71fe8",
            "server": "65535",
            "farm": 66,
            "title": "2020-01-20_09-29-49",
            "ispublic": 1,
            "isfriend": 0,
            "isfamily": 0
        }, {
           "id": "49411864761",
           "owner": "22422334@N02",
           "secret": "29fd80009f",
           "server": "65535",
           "farm": 66,
           "title": "Forget the \u2018football\u2019 - it\u2019s all about the beach for Marcy",
           "ispublic": 1,
           "isfriend": 0,
           "isfamily": 0
        }, {
            "id": "49412065862",
            "owner": "67451083@N00",
            "secret": "c848f0b743",
            "server": "65535",
            "farm": 66,
            "title": "Petite France",
            "ispublic": 1,
            "isfriend": 0,
            "isfamily": 0
        }, {
            "id": "49411394983",
            "owner": "186505135@N06",
            "secret": "cb02c2c856",
            "server": "65535",
            "farm": 66,
            "title": "",
            "ispublic": 1,
            "isfriend": 0,
            "isfamily": 0
        }, {
           "id": "49411865661",
           "owner": "146308355@N02",
           "secret": "7f9eafa3ee",
           "server": "65535",
           "farm": 66,
           "title": "",
           "ispublic": 1,
           "isfriend": 0,
           "isfamily": 0
       }, {
            "id": "49411395433",
            "owner": "124141460@N05",
            "secret": "b852de2aeb",
            "server": "65535",
            "farm": 66,
            "title": "IMG_7983.HEIC",
            "ispublic": 1,
            "isfriend": 0,
            "isfamily": 0
        }, {
            "id": "49412064637",
            "owner": "21313533@N02",
            "secret": "fc0d75375a",
            "server": "65535",
            "farm": 66,
            "title": "#sundayfunday",
            "ispublic": 1,
            "isfriend": 0,
            "isfamily": 0
        }, {
            "id": "49411395563",
            "owner": "7414413@N05",
            "secret": "1e04a45548",
            "server": "65535",
            "farm": 66,
            "title": "IMG_20191208_140002",
            "ispublic": 1,
            "isfriend": 0,
            "isfamily": 0
        }, {
            "id": "49411395643",
            "owner": "11615119@N05",
            "secret": "488183d208",
            "server": "65535",
            "farm": 66,
            "title": "Cyclamen3-edit.jpg",
            "ispublic": 1,
            "isfriend": 0,
            "isfamily": 0
        }, {
            "id": "49411395748",
            "owner": "144326402@N07",
            "secret": "43627e7fa0",
            "server": "65535",
            "farm": 66,
            "title": "20200118-DSCF9566-XT2.jpg",
            "ispublic": 1,
            "isfriend": 0,
            "isfamily": 0
        }, {
            "id": "49411866356",
            "owner": "9733305@N03",
            "secret": "8df25ee9e4",
            "server": "65535",
            "farm": 66,
            "title": "_DSC4497.jpg",
            "ispublic": 1,
            "isfriend": 0,
            "isfamily": 0
        }, {
            "id": "49411866756",
            "owner": "75559103@N02",
            "secret": "392ba6d9f4",
            "server": "65535",
            "farm": 66,
            "title": "Bit of rain around home , havnt checked yet but my mate up the rd has had 80ml",
            "ispublic": 1,
            "isfriend": 0,
            "isfamily": 0
        }, {
            "id": "49411866851",
            "owner": "184067336@N07",
            "secret": "e6a217b4df",
            "server": "65535",
            "farm": 66,
            "title": "DSC05144.jpg",
            "ispublic": 1,
            "isfriend": 0,
            "isfamily": 0
        }, {
            "id": "49411867161",
            "owner": "62953664@N00",
            "secret": "f39f280399",
            "server": "65535",
            "farm": 66,
            "title": "Squirrel\u2019s Burrow Apartment on the hill!",
            "ispublic": 1,
            "isfriend": 0,
            "isfamily": 0
        }, {
            "id": "49411867471",
            "owner": "163323291@N07",
            "secret": "ac8f8763ba",
            "server": "65535",
            "farm": 66,
            "title": "P1010252.JPG",
            "ispublic": 1,
            "isfriend": 0,
            "isfamily": 0
        }, {
            "id": "49411868341",
            "owner": "110805575@N07",
            "secret": "d3dfb794d8",
            "server": "65535",
            "farm": 66,
            "title": "20200117-DSC_1086.jpg",
            "ispublic": 1,
            "isfriend": 0,
            "isfamily": 0
        }, {
            "id": "49412067157",
            "owner": "145317849@N02",
            "secret": "79bd315831",
            "server": "65535",
            "farm": 66,
            "title": "",
            "ispublic": 1,
            "isfriend": 0,
            "isfamily": 0
        }, {
            "id": "49412067487",
            "owner": "156271625@N08",
            "secret": "d29433817e",
            "server": "65535",
            "farm": 66,
            "title": "2020-01-20_08-29-28",
            "ispublic": 1,
            "isfriend": 0,
            "isfamily": 0
        }, {
            "id": "49412069492",
            "owner": "7723662@N04",
            "secret": "edd5b45140",
            "server": "65535",
            "farm": 66,
            "title": "Fame and Fortune Vanessa",
            "ispublic": 1,
            "isfriend": 0,
            "isfamily": 0
        }, {
            "id": "49425889133",
            "owner": "186576931@N08",
            "secret": "ba1d7987ee",
            "server": "65535",
            "farm": 66,
            "title": "IMG_2487",
            "ispublic": 1,
            "isfriend": 0,
            "isfamily": 0
        }, {
            "id": "49425889598",
            "owner": "8357080@N03",
            "secret": "d7961b6fe6",
            "server": "65535",
            "farm": 66,
            "title": "DSC07265_DxO",
            "ispublic": 1,
            "isfriend": 0,
            "isfamily": 0
        }, {
            "id": "49425891668",
            "owner": "15237218@N00",
            "secret": "56cfc9bc61",
            "server": "65535",
            "farm": 66,
            "title": "World Economic Forum Annual Meeting",
            "ispublic": 1,
            "isfriend": 0,
            "isfamily": 0
        }, {
            "id": "49426358931",
            "owner": "147832065@N08",
            "secret": "3f1431a4f8",
            "server": "65535",
            "farm": 66,
            "title": "",
            "ispublic": 1,
            "isfriend": 0,
            "isfamily": 0
        }, {
            "id": "49426361381",
            "owner": "129808470@N02",
            "secret": "86becd658c",
            "server": "65535",
            "farm": 66,
            "title": "Bobby",
            "ispublic": 1,
            "isfriend": 0,
            "isfamily": 0
        }, {
            "id": "49426362486",
            "owner": "85089239@N00",
            "secret": "98d7a51947",
            "server": "65535",
            "farm": 66,
            "title": "\u793e\u9577\u966a\u7761 #\u5948\u793e\u9577\u7684\u65e5\u5e38",
            "ispublic": 1,
            "isfriend": 0,
            "isfamily": 0
        }]
    },
    "stat": "ok"
}
