{
    "photos": {
        "page": 1,
        "pages": 12914,
        "perpage": 25,
        "total": "322831",
        "photo": [{
            "id": "49409212312",
            "owner": "146192071@N03",
            "secret": "c3c3bababc",
            "server": "65535",
            "farm": 66,
            "title": "Search photo",
            "ispublic": 1,
            "isfriend": 0,
            "isfamily": 0
        }, {
            "id": "49407720948",
            "owner": "10559879@N00",
            "secret": "dd7cfb4a58",
            "server": "65535",
            "farm": 66,
            "title": "Liam caught 9 shiny Piplups today",
            "ispublic": 1,
            "isfriend": 0,
            "isfamily": 0
        }, {
            "id": "49408202396",
            "owner": "10559879@N00",
            "secret": "1c97c0b0bf",
            "server": "65535",
            "farm": 66,
            "title": "Shiny Piplup, caught on the sofa at home",
            "ispublic": 1,
            "isfriend": 0,
            "isfamily": 0
        }, {
            "id": "49407096093",
            "owner": "10559879@N00",
            "secret": "37720971bc",
            "server": "65535",
            "farm": 66,
            "title": "Piplup, Prinplup, Empoleon and shinies on Pokemon Go Community Day 2020.01.19",
            "ispublic": 1,
            "isfriend": 0,
            "isfamily": 0
        }, {
            "id": "49407077346",
            "owner": "132559401@N04",
            "secret": "58be579748",
            "server": "65535",
            "farm": 66,
            "title": "Bug Trainer - Pokemon",
            "ispublic": 1,
            "isfriend": 0,
            "isfamily": 0
        }, {
            "id": "49406597668",
            "owner": "132559401@N04",
            "secret": "f424d32b04",
            "server": "65535",
            "farm": 66,
            "title": "Steampunk Eevee and Decidueye",
            "ispublic": 1,
            "isfriend": 0,
            "isfamily": 0
        }, {
            "id": "49407077326",
            "owner": "132559401@N04",
            "secret": "1b65b11e9c",
            "server": "65535",
            "farm": 66,
            "title": "Distressing Pokeball Guys",
            "ispublic": 1,
            "isfriend": 0,
            "isfamily": 0
        }, {
            "id": "49407278492",
            "owner": "132559401@N04",
            "secret": "81ecf32b0e",
            "server": "65535",
            "farm": 66,
            "title": "Pokemon Trainers",
            "ispublic": 1,
            "isfriend": 0,
            "isfamily": 0
        }, {
            "id": "49407278442",
            "owner": "132559401@N04",
            "secret": "5f5d68047b",
            "server": "65535",
            "farm": 66,
            "title": "Pokemon Antagonists",
            "ispublic": 1,
            "isfriend": 0,
            "isfamily": 0
        }]
    },
    "stat": "ok"
}
